{
  "project_info": {
    "project_number": "38771809943",
    "firebase_url": "https://tubes-9395a.firebaseio.com",
    "project_id": "tubes-9395a",
    "storage_bucket": "tubes-9395a.appspot.com"
  },
  "client": [
    {
      "client_info": {
        "mobilesdk_app_id": "1:38771809943:android:54601bc1c135c98c1153d2",
        "android_client_info": {
          "package_name": "com.example.tubespunyaruang"
        }
      },
      "oauth_client": [
        {
          "client_id": "38771809943-9pkhsmnu188768ts480dr1gpgkdr9ngd.apps.googleusercontent.com",
          "client_type": 1,
          "android_info": {
            "package_name": "com.example.tubespunyaruang",
            "certificate_hash": "48590a6bea41aee977f8be981ea16b3709e35839"
          }
        },
        {
          "client_id": "38771809943-0oj1fuer6n9pddc97f5d0cmkt4gpgb6d.apps.googleusercontent.com",
          "client_type": 1,
          "android_info": {
            "package_name": "com.example.tubespunyaruang",
            "certificate_hash": "676c1e65ee2cc96aee37cc7c7a9712da7bbc5579"
          }
        },
        {
          "client_id": "38771809943-chvbtrsq05ak8p2m1vid8aj9uqljniet.apps.googleusercontent.com",
          "client_type": 1,
          "android_info": {
            "package_name": "com.example.tubespunyaruang",
            "certificate_hash": "72a1a00936404805102aa28d5fd9d0100deb815a"
          }
        },
        {
          "client_id": "38771809943-u0egbh763o0op0sp0ms3jemjiiukpi5k.apps.googleusercontent.com",
          "client_type": 3
        }
      ],
      "api_key": [
        {
          "current_key": "AIzaSyBES7313E9PjKx16P07bRgS0O2s7i6Z-4k"
        }
      ],
      "services": {
        "appinvite_service": {
          "other_platform_oauth_client": [
            {
              "client_id": "38771809943-u0egbh763o0op0sp0ms3jemjiiukpi5k.apps.googleusercontent.com",
              "client_type": 3
            }
          ]
        }
      }
    }
  ],
  "configuration_version": "1"
}